version="0.01"
tags={
	"Alternative History"
	"Converted From CKII"
}
name="Lexie's Saruhan Adventures"
path="C:/Users/Alex/Documents/Paradox Interactive/Europa Universalis IV/mod/Lexie-Saruhan-Adventures"